{
 "3,2":[0,0,0,0,0,0,0,1,1],     "4,2":[0,0,0,0,0,0,1,0,1],    "5,2":[0,0,0,0,0,1,1,1,1],   "6,2":[0,0,0,0,1,1,0,1,1],     "6,3":[0,0,0,0,0,0,1,1,1],    
 "7,2":[0,0,0,1,1,1,1,1,1],     "7,3":[0,0,0,0,0,1,0,1,1],    "8,2":[0,0,1,1,1,0,1,1,1],   "8,3":[0,0,0,0,1,1,1,1,1],     "9,2":[0,1,1,1,1,1,1,1,1],   
 "9,3":[0,0,0,1,1,1,1,1,1],    "10,2":[1,1,1,1,0,1,1,1,1],   "10,3":[0,0,1,1,1,1,1,1,1],  "10,4":[0,0,0,0,0,1,1,1,1],    "11,2":[1,1,1,1,1,1,1,1,0], 
"11,3":[0,1,1,1,1,1,1,1,1],    "11,4":[0,0,0,0,1,0,1,1,1],   "12,2":[1,1,1,0,1,1,1,0,0],  "12,3":[1,1,1,1,1,1,1,1,1],    "12,4":[0,0,0,1,1,1,1,1,1],  
"13,2":[1,1,1,1,1,1,0,0,0],    "13,3":[1,1,1,1,1,1,1,1,1],   "13,4":[0,0,1,1,1,1,1,1,1],  "14,2":[1,1,0,1,1,0,0,0,0],    "14,3":[1,1,1,1,1,1,1,1,1],  
"14,4":[0,1,1,1,1,1,1,1,1],    "15,2":[1,1,1,1,0,0,0,0,0],   "15,3":[1,1,1,1,1,1,1,1,1],  "15,4":[1,1,1,1,1,1,1,1,1],    "15,5":[0,0,0,0,1,1,1,1,1], 
"16,2":[1,0,1,0,0,0,0,0,0],    "16,3":[1,1,1,1,1,1,1,1,1],   "16,4":[1,1,1,1,1,1,1,1,1],  "16,5":[0,0,0,1,0,1,1,1,1],    "17,2":[1,1,0,0,0,0,0,0,0],  
"17,3":[1,1,1,1,1,1,1,1,1],    "17,4":[1,1,1,1,1,1,1,1,1],   "17,5":[0,0,1,1,1,1,1,1,1],  "18,3":[1,1,1,1,1,1,1,1,1],    "18,4":[1,1,1,1,1,1,1,1,1], 
"18,5":[0,1,1,1,1,1,1,1,1],    "19,3":[1,1,1,1,1,1,1,1,0],   "19,4":[1,1,1,1,1,1,1,1,1],  "19,5":[1,1,1,1,1,1,1,1,1],    "20,3":[1,1,1,1,1,1,1,0,0], 
"20,4":[1,1,1,1,1,1,1,1,1],    "20,5":[1,1,1,1,1,1,1,1,1],   "21,3":[1,1,1,1,1,1,0,0,0],  "21,4":[1,1,1,1,1,1,1,1,1],    "21,5":[1,1,1,1,1,1,1,1,1],  
"21,6":[0,0,0,1,1,1,1,1,1],    "22,3":[1,1,1,1,1,0,0,0,0],   "22,4":[1,1,1,1,1,1,1,1,1],  "22,5":[1,1,1,1,1,1,1,1,1],    "22,6":[0,0,1,0,1,1,1,1,1], 
"23,3":[1,1,0,1,0,0,0,0,0],    "23,4":[1,1,1,1,1,1,1,1,1],   "23,5":[1,1,1,1,1,1,1,1,1],  "23,6":[0,1,1,1,1,1,1,1,1],    "24,3":[1,1,1,0,0,0,0,0,0],
"24,4":[1,1,1,1,1,1,1,1,1],    "24,5":[1,1,1,1,1,1,1,1,1],   "24,6":[1,1,1,1,1,1,1,1,1],  "25,4":[1,1,1,1,1,1,1,1,1],    "25,5":[1,1,1,1,1,1,1,1,1],  
"25,6":[1,1,1,1,1,1,1,1,1],    "26,4":[1,1,1,1,1,1,1,1,0],   "26,5":[1,1,1,1,1,1,1,1,1],  "26,6":[1,1,1,1,1,1,1,1,1],    "27,4":[1,1,1,1,1,1,1,0,0],  
"27,5":[1,1,1,1,1,1,1,1,1],    "27,6":[1,1,1,1,1,1,1,1,1],   "28,4":[1,1,1,1,1,1,0,0,0],  "28,5":[1,1,1,1,1,1,1,1,1],    "28,6":[1,1,1,1,1,1,1,1,1], 
"28,7":[0,0,1,1,1,1,1,1,1],    "29,4":[1,1,1,0,1,0,0,0,0],   "29,5":[1,1,1,1,1,1,1,1,1],  "29,6":[1,1,1,1,1,1,1,1,1],    "29,7":[0,1,0,1,1,1,1,1,1],  
"30,4":[1,1,1,1,0,0,0,0,0],    "30,5":[1,1,1,1,1,1,1,1,1],   "30,6":[1,1,1,1,1,1,1,1,1],  "30,7":[1,1,1,1,1,1,1,1,1],    "31,5":[1,1,1,1,1,1,1,1,1], 
"31,6":[1,1,1,1,1,1,1,1,1],    "31,7":[1,1,1,1,1,1,1,1,1],   "32,5":[1,1,1,1,1,1,1,1,0],  "32,6":[1,1,1,1,1,1,1,1,1],    "32,7":[1,1,1,1,1,1,1,1,1], 
"33,5":[1,1,1,1,1,1,1,0,0],    "33,6":[1,1,1,1,1,1,1,1,1],   "33,7":[1,1,1,1,1,1,1,1,1],  "34,5":[1,1,1,1,0,1,0,0,0],    "34,6":[1,1,1,1,1,1,1,1,1], 
"34,7":[1,1,1,1,1,1,1,1,1],    "35,5":[1,1,1,1,1,0,0,0,0],   "35,6":[1,1,1,1,1,1,1,1,1],  "35,7":[1,1,1,1,1,1,1,1,1],    "36,6":[1,1,1,1,1,1,1,1,1],  
"36,7":[1,1,1,1,1,1,1,1,1],    "36,8":[0,1,1,1,1,1,1,1,1],   "37,6":[1,1,1,1,1,1,1,1,0],  "37,7":[1,1,1,1,1,1,1,1,1],    "37,8":[1,0,1,1,1,1,1,1,1], 
"38,6":[1,1,1,1,1,0,1,0,0],    "38,7":[1,1,1,1,1,1,1,1,1],   "38,8":[1,1,0,1,1,1,1,1,1],  "39,6":[1,1,1,1,1,1,0,0,0],    "39,7":[1,1,1,1,1,1,1,1,1], 
"39,8":[1,1,1,0,1,1,1,1,1],    "40,7":[1,1,1,1,1,1,1,1,1],   "40,8":[1,1,1,1,0,1,1,1,1],  "41,7":[1,1,1,1,1,1,0,1,0],    "41,8":[1,1,1,1,1,0,1,1,1], 
"42,7":[1,1,1,1,1,1,1,0,0],    "42,8":[1,1,1,1,1,1,0,1,1],   "43,8":[1,1,1,1,1,1,1,0,1],  "44,8":[1,1,1,1,1,1,1,1,0],    "45,9":[1,1,1,1,1,1,1,1,1]
}